Biostat 203B Homework 2
…
## Parsed with column specification:
## cols(
##   subject_id = col_double(),
##   hadm_id = col_double(),
##   stay_id = col_double(),
##   first_careunit = col_character(),
##   last_careunit = col_character(),
##   intime = col_datetime(format = ""),
##   outtime = col_datetime(format = ""),
##   los = col_double()
## )

## # A tibble: 69,619 x 8
##    subject_id  hadm_id  stay_id first_careunit                     
##         <dbl>    <dbl>    <dbl> <chr>                              
##  1   17823467 27561644 35964304 Coronary Care Unit (CCU)           
##  2   15772648 26147926 39637383 Trauma SICU (TSICU)                
##  3   13713711 25848902 36363748 Trauma SICU (TSICU)                
##  4   13173210 22338446 38210858 Coronary Care Unit (CCU)           
##  5   10213765 28522861 39765853 Trauma SICU (TSICU)                
##  6   17530304 21776160 35848367 Trauma SICU (TSICU)                
##  7   10297774 20364526 37788595 Coronary Care Unit (CCU)           
##  8   16766597 21185791 39262919 Trauma SICU (TSICU)                
##  9   17684317 28656350 36989766 Trauma SICU (TSICU)                
## 10   15693895 21203492 34766377 Surgical Intensive Care Unit (SICU)
##    last_careunit                       intime              outtime            
##    <chr>                               <dttm>              <dttm>             
##  1 Coronary Care Unit (CCU)            2138-05-09 05:08:00 2138-05-11 16:55:34
##  2 Trauma SICU (TSICU)                 2146-06-18 18:35:00 2146-06-21 17:41:00
##  3 Trauma SICU (TSICU)                 2157-09-15 15:30:00 2157-09-17 18:18:49
##  4 Coronary Care Unit (CCU)            2178-02-12 17:13:50 2178-02-15 14:55:14
##  5 Trauma SICU (TSICU)                 2113-04-10 14:11:00 2113-04-11 10:55:19
##  6 Trauma SICU (TSICU)                 2129-03-21 07:09:00 2129-03-23 20:23:23
##  7 Coronary Care Unit (CCU)            2194-05-10 21:35:40 2194-05-13 14:58:11
##  8 Trauma SICU (TSICU)                 2115-07-11 23:15:59 2115-07-13 16:52:06
##  9 Trauma SICU (TSICU)                 2148-04-14 22:03:00 2148-04-15 22:36:50
## 10 Surgical Intensive Care Unit (SICU) 2147-06-02 23:31:46 2147-06-15 15:56:59
##       los
##     <dbl>
##  1  2.49 
##  2  2.96 
##  3  2.12 
##  4  2.90 
##  5  0.864
##  6  2.55 
##  7  2.72 
##  8  1.73 
##  9  1.02 
## 10 12.7  
## # ... with 69,609 more rows
…
admit_table

## # A tibble: 524,520 x 15
##    subject_id hadm_id admittime           dischtime          
##         <dbl>   <dbl> <dttm>              <dttm>             
##  1   12427812  2.16e7 2184-01-06 11:51:00 2184-01-10 11:45:00
##  2   14029832  2.21e7 2120-01-18 01:28:00 2120-01-20 16:13:00
##  3   14495017  2.25e7 2175-01-28 15:41:00 2175-01-29 16:00:00
##  4   13676048  2.39e7 2193-01-19 05:27:00 2193-01-24 18:59:00
##  5   13831972  2.78e7 2131-01-27 04:03:00 2131-01-27 05:39:00
##  6   18523038  2.54e7 2142-08-26 17:14:00 2142-08-27 10:00:00
##  7   16705931  2.06e7 2174-10-24 11:30:00 2174-10-24 18:45:00
##  8   19963742  2.50e7 2171-07-04 15:58:00 2171-07-05 13:37:00
##  9   10903424  2.26e7 2181-01-31 13:09:00 2181-01-31 13:42:00
## 10   15030422  2.20e7 2149-09-21 23:54:00 2149-09-22 03:59:00
## # ... with 524,510 more rows, and 11 more variables: deathtime <dttm>,
## #   admission_type <chr>, admission_location <chr>, discharge_location <chr>,
## #   insurance <chr>, language <chr>, marital_status <chr>, ethnicity <chr>,
## #   edregtime <dttm>, edouttime <dttm>, hospital_expire_flag <dbl>
…
pat_table <- read_csv(str_c(mimic_path, "/core/patients.csv.gz"))

## Parsed with column specification:
## cols(
##   subject_id = col_double(),
##   gender = col_character(),
##   anchor_age = col_double(),
##   anchor_year = col_double(),
##   anchor_year_group = col_character(),
##   dod = col_logical()
## )

pat_table

## # A tibble: 383,220 x 6
##    subject_id gender anchor_age anchor_year anchor_year_group dod  
##         <dbl> <chr>       <dbl>       <dbl> <chr>             <lgl>
##  1   10002723 F               0        2128 2017 - 2019       NA   
##  2   10003939 M               0        2184 2008 - 2010       NA   
##  3   10004222 M               0        2161 2014 - 2016       NA   
##  4   10005325 F               0        2154 2011 - 2013       NA   
##  5   10007338 F               0        2153 2017 - 2019       NA   
##  6   10008101 M               0        2142 2008 - 2010       NA   
##  7   10009872 F               0        2168 2014 - 2016       NA   
##  8   10011333 F               0        2132 2014 - 2016       NA   
##  9   10011879 M               0        2158 2014 - 2016       NA   
## 10   10012663 F               0        2171 2011 - 2013       NA   
## # ... with 383,210 more rows
…
Solution: Reads in the Lab Item Dictionary.

dlabitems <- read_csv(str_c(mimic_path, "/hosp/d_labitems.csv.gz")) %>%
  print(width = Inf)

## Parsed with column specification:
## cols(
##   itemid = col_double(),
##   label = col_character(),
##   fluid = col_character(),
##   category = col_character(),
##   loinc_code = col_character()
## )

## # A tibble: 1,625 x 5
##    itemid label                     fluid            category   loinc_code
##     <dbl> <chr>                     <chr>            <chr>      <chr>     
##  1  51898 <NA>                      Other Body Fluid Chemistry  <NA>      
##  2  51532 11-Deoxycorticosterone    Blood            Chemistry  <NA>      
##  3  51952 17-Hydroxycorticosteroids Urine            Chemistry  <NA>      
##  4  51953 17-Ketosteroids, Urine    Urine            Chemistry  <NA>      
##  5  52063 24 Hr                     Blood            Hematology <NA>      
##  6  51066 24 hr Calcium             Urine            Chemistry  <NA>      
##  7  51067 24 hr Creatinine          Urine            Chemistry  <NA>      
##  8  51068 24 hr Protein             Urine            Chemistry  <NA>      
##  9  50853 25-OH Vitamin D           Blood            Chemistry  <NA>      
## 10  51533 3t                        Blood            Chemistry  <NA>      
## # ... with 1,615 more rows
…
Creates a subset of only the lab items that we want for further analysis.

labevent_subset <- filter(lab_icu, itemid %in% itemids) %>% print(width = Inf)

## # A tibble: 8,021,352 x 5
##    subject_id  hadm_id itemid charttime           valuenum
##         <dbl>    <dbl>  <dbl> <dttm>                 <dbl>
##  1   12457441 21673651  50882 2135-08-16 23:45:00     28  
##  2   12457441 21673651  50893 2135-08-16 23:45:00      7.5
##  3   12457441 21673651  50902 2135-08-16 23:45:00     95  
##  4   12457441 21673651  50912 2135-08-16 23:45:00      0.6
##  5   12457441 21673651  50960 2135-08-16 23:45:00      1.5
##  6   12457441 21673651  50971 2135-08-16 23:45:00      3  
##  7   12457441 21673651  50983 2135-08-16 23:45:00    133  
##  8   12457441 21673651  51221 2135-08-16 23:45:00     14.8
##  9   12457441 21673651  51301 2135-08-16 23:45:00      3.3
## 10   12457441 21673651  50813 2135-08-17 00:02:00      2  
## # ... with 8,021,342 more rows
…
Converts the stripped down data to a tibble and changes the charttime variable to a data instead of a character value.

chartfilter_tble <- as_tibble(chartfilter) %>% 
  mutate(charttime=ymd_hms(charttime)) %>% print(width = Inf)

## # A tibble: 30,095,996 x 6
##    subject_id  hadm_id  stay_id charttime           itemid valuenum
##         <int>    <int>    <int> <dttm>               <int>    <dbl>
##  1   10003700 28623837 35053963 2165-04-24 05:28:00 220179    152  
##  2   10003700 28623837 35053963 2165-04-24 05:28:00 220181    110  
##  3   10003700 28623837 35053963 2165-04-24 05:30:00 220045     65  
##  4   10003700 28623837 35053963 2165-04-24 05:30:00 220210     14  
##  5   10003700 28623837 35053963 2165-04-24 05:38:00 223761     97.6
##  6   10003700 28623837 35053963 2165-04-24 06:00:00 220045     56  
##  7   10003700 28623837 35053963 2165-04-24 06:00:00 220179    126  
##  8   10003700 28623837 35053963 2165-04-24 06:00:00 220181     88  
##  9   10003700 28623837 35053963 2165-04-24 06:00:00 220210     14  
## 10   10003700 28623837 35053963 2165-04-24 06:09:00 220045     55  
## # ... with 30,095,986 more rows
…
first vitals measurement during ICU stay

an indicator variable whether the patient died within 30 days of hospital admission

This creates a tibble of the first chart event for each vital sign. We wont use this until later, but it lets us deallocate the data from Q7, which is very memory intensive.

chartfilter_uniq <- chartfilter_tble %>% 
  left_join(select(icu_table, subject_id, hadm_id, intime), by = 
              c("subject_id", "hadm_id")) %>% filter(charttime >= intime) %>% 
  group_by(subject_id, itemid) %>% 
  arrange(intime, .by_group=TRUE) %>% slice_head(n = 1) %>% 
  arrange(charttime, .by_group=TRUE) %>% slice_head(n = 1) %>% 
  print(width = Inf)

## # A tibble: 295,740 x 7
## # Groups:   subject_id, itemid [295,740]
##    subject_id  hadm_id  stay_id charttime           itemid valuenum
##         <dbl>    <dbl>    <int> <dttm>               <int>    <dbl>
##  1   10000032 29079034 37529680 2180-07-23 14:12:00 220045     91  
##  2   10000032 29079034 37529680 2180-07-23 14:11:00 220179     84  
##  3   10000032 29079034 37529680 2180-07-23 14:11:00 220181     56  
##  4   10000032 29079034 37529680 2180-07-23 14:12:00 220210     24  
##  5   10000032 29079034 37529680 2180-07-23 14:00:00 223761     98.7
##  6   10000980 26913865 36742749 2189-06-27 08:56:00 220045     77  
##  7   10000980 26913865 36742749 2189-06-27 08:55:00 220179    150  
##  8   10000980 26913865 36742749 2189-06-27 08:55:00 220181     92  
##  9   10000980 26913865 36742749 2189-06-27 08:54:00 220210     23  
## 10   10000980 26913865 36742749 2189-06-27 09:07:00 223761     98  
##    intime             
##    <dttm>             
##  1 2180-07-23 14:00:00
##  2 2180-07-23 14:00:00
##  3 2180-07-23 14:00:00
##  4 2180-07-23 14:00:00
##  5 2180-07-23 14:00:00
##  6 2189-06-27 08:42:00
##  7 2189-06-27 08:42:00
##  8 2189-06-27 08:42:00
##  9 2189-06-27 08:42:00
## 10 2189-06-27 08:42:00
## # ... with 295,730 more rows
…
Merging Lab Results

labmerge <- labevent_subset %>% semi_join(icutble_uniq, by = 
                                          c("subject_id", "hadm_id")) %>%
  left_join(select(icutble_uniq, subject_id, hadm_id, intime), 
  by = c("subject_id", "hadm_id")) %>% filter(charttime>=intime) %>% 
  group_by(subject_id, itemid) %>% arrange(charttime, .by_group=TRUE) %>% 
  slice_head(n=1) %>% select(-charttime, -intime) %>% 
  spread(key=itemid, value=valuenum) %>% print(width = Inf)

## # A tibble: 49,309 x 13
## # Groups:   subject_id [49,309]
##    subject_id  hadm_id `50813` `50882` `50893` `50902` `50912` `50931` `50960`
##         <dbl>    <dbl>   <dbl>   <dbl>   <dbl>   <dbl>   <dbl>   <dbl>   <dbl>
##  1   10000032 29079034    NA        21     9.3     102     0.5     115     2.3
##  2   10000980 26913865    NA        23     9.2     103     2.2     144     2  
##  3   10001217 24597018    NA        23     8.2     104     0.4     113     1.9
##  4   10001725 25563031    NA        24     9.1     106     0.8     146     1.5
##  5   10001884 26184834     1.5      33     9.8      96     1.1     148     2.2
##  6   10002013 23581541     3.3      23    NA       109     1.1      98     2.1
##  7   10002155 23822395    NA        25     8.8     106     0.9      95     2  
##  8   10002223 22494570    NA        26     8.7     102     0.8      88     2  
##  9   10002428 28662225     1.6      20     7.4      98     0.8      99     1.4
## 10   10002443 21329021     1.7      20     7.6     101     0.8     226     1.6
##    `50971` `50983` `51221` `51301`
##      <dbl>   <dbl>   <dbl>   <dbl>
##  1     4.7     132    34.8     4.1
##  2     4.2     139    30.8     5.4
##  3     3.6     138    33.6    19  
##  4     3.9     140    39.1    17  
##  5     4       136    36      18.4
##  6     4       140    28.6    18.2
##  7     4.5     139    37.9     5.5
##  8     3.9     138    32.5    10.1
##  9     3.9     129    28.7    22.4
## 10     5.2     133    43.4    20.7
## # ... with 49,299 more rows
…
